{
  "images" : [
    {
      "filename" : "Marvel_logo_1920x720.png",
      "idiom" : "tv",
      "scale" : "1x"
    },
    {
      "filename" : "Marvel_logo_3840x1440.png",
      "idiom" : "tv",
      "scale" : "2x"
    },
    {
      "filename" : "Marvel_logo_1920x720.png",
      "idiom" : "tv-marketing",
      "scale" : "1x"
    },
    {
      "filename" : "Marvel_logo_3840x1440.png",
      "idiom" : "tv-marketing",
      "scale" : "2x"
    }
  ],
  "info" : {
    "author" : "xcode",
    "version" : 1
  }
}
